{
  "algorithm": {
    "parameters": [],
    "statements": [
      {
        "command": "Set",
        "expression": "[]",
        "variableName": "userOptions"
      },
      {
        "command": "Push",
        "expressionItem": "{ icon: \"my-profile.svg\", text: \"My Profile\", handlerKey: \"my-profile\" }",
        "variableNameList": "userOptions"
      },
      {
        "command": "Push",
        "expressionItem": "{ icon: \"logout.svg\", text: \"Logout\", handlerKey: \"logout\" }",
        "variableNameList": "userOptions"
      },
      {
        "command": "LoadResource",
        "expressionPath": "\"/CultureEn.json\"",
        "variableName": "culture"
      },
      {
        "command": "Launch",
        "expressionCulture": "^culture",
        "expressionIcon": "\"logo.svg\"",
        "expressionMainMenu": "null",
        "expressionSubTitle": "\"Big Ideas Come Alive\"",
        "expressionTitle": "\"blazedpath\"",
        "expressionToolsMenu": "[{ icon: \"user.svg\", text: \"\", children: ^userOptions }]",
        "search": "disable",
        "uiComponentName": "CmpHome"
      }
    ],
    "typeReturn": "any",
    "variables": [
      {
        "name": "userOptions",
        "type": "list(MenuItem)"
      },
      {
        "name": "culture",
        "type": "Culture"
      }
    ]
  }
}